﻿energy,cross section
2.96701155019741, 2.3265105942875732e-7
3.0977778063594488, 3.060488719776355e-7
3.261384943117093, 4.549766044216629e-7
3.436120994211575, 6.70941478199109e-7
3.6202189231845123, 9.87262154637792e-7
3.7893779355181763, 0.0000014011678844583124
4.016349504100731, 0.0000020631884056858826
4.275470753433233, 0.0000031768262364760093
4.53402201353566, 0.0000046553373322250165
4.776942464828192, 0.000006758357213941232
5.076847611803244, 0.000009111305041316369
5.424994806282063, 0.000014122201770484845
5.780232161870908, 0.000020451318667902
6.130892049006128, 0.00002677398814530207
6.5548834868822095, 0.00004053634244039889
7.015821001875211, 0.0000555775709023004
7.517340810697606, 0.00007952486722078651
8.050333495280238, 0.00010858206365422856
8.64928390931258, 0.00015343489833966344
9.267570380915782, 0.00019211623272749023
9.984187188346374, 0.0002723628582249216
10.727017662853111, 0.0003597948932971219
11.525115241576392, 0.00048642262482096626
12.382591835528654, 0.0005976538841536498
13.303865284762967, 0.0007842960577258644
14.29368211970663, 0.0010126289980722152
15.357142015953702, 0.0012419061301537982
16.499724068511107, 0.0015445168145218177
17.727315020867074, 0.001901451566709635
19.046239594321708, 0.002355781036176183
20.418841194841598, 0.002749375514896547
21.98577631832133, 0.0033296062713404602
23.621533375640926, 0.003927132704879806
25.37899189629894, 0.004631890387306286
27.26720655385614, 0.005463122886924954
29.295905695887015, 0.0065778505631587415
31.47554146579537, 0.007281090536950763
33.817343653727455, 0.008533399946854456
36.33337755403097, 0.009734875607313532
39.03660612734896, 0.011211771866159287
41.94095678761675, 0.01223441957777266
45.061393158058245, 0.013979155402279467
48.54577475712316, 0.015636191038246934
52.01602687285132, 0.016947699118042253
55.886055468570696, 0.019170922656899833
60.04401688484734, 0.02064468817399437
64.51133352389456, 0.02308267029774643
69.3110216295573, 0.025268163591584056
74.4678098702391, 0.02679638306958155
80.00826674448058, 0.029277682797784997
85.96093746560183, 0.03155510409667604
92.35649103065805, 0.03399888557505617
99.28183904677205, 0.03593612358289255
106.6105014215228, 0.03858934135601855
114.54239691430618, 0.0411969194080227
123.0644309513187, 0.043827404591523976
132.2205102509107, 0.04618396590967661
142.05780822183078, 0.048744537217577356
152.62700800726546, 0.05185694913502023
163.98256361152264, 0.05447207512975029
176.1829804547241, 0.05694729601288004
189.29111680096085, 0.059001969281308964
203.37450761291288, 0.06224027208506543
218.5057125014799, 0.06527534612377817
234.76268956310372, 0.06748753627939556
252.22919703085077, 0.07044229628481447
270.9952248086125, 0.0734098233084704
291.1574581117504, 0.0767455788721639
312.81977560293006, 0.07760293788918636
336.09378458960447, 0.08087212170980093
361.0993960405661, 0.08282046938841497
387.96544238412804, 0.08562726610332229
410.03409767987216, 0.08784242851671302